C:\Users\Desarrollo_3\Desktop\respaldo\eclipse-workspace\ApiMonitoreo\src\com\icpayment\monitoreo\Monitoreo.java
C:\Users\Desarrollo_3\Desktop\respaldo\eclipse-workspace\ApiMonitoreo\src\com\icpayment\monitoreo\ServiciosMonitoreo.java
C:\Users\Desarrollo_3\Desktop\respaldo\eclipse-workspace\ApiMonitoreo\src\com\icpayment\monitoreo\ManejadorTest.java
C:\Users\Desarrollo_3\Desktop\respaldo\eclipse-workspace\ApiMonitoreo\src\com\icpayment\monitoreo\Utils.java
C:\Users\Desarrollo_3\Desktop\respaldo\eclipse-workspace\ApiMonitoreo\src\com\icpayment\monitoreo\ConsultaServicio.java
C:\Users\Desarrollo_3\Desktop\respaldo\eclipse-workspace\ApiMonitoreo\src\com\icpayment\monitoreo\IniciarAutentificationTotem.java
C:\Users\Desarrollo_3\Desktop\respaldo\eclipse-workspace\ApiMonitoreo\src\com\icpayment\monitoreo\ServicioMonitoreo.java
C:\Users\Desarrollo_3\Desktop\respaldo\eclipse-workspace\ApiMonitoreo\src\com\icpayment\monitoreo\ObtenerNombreEquipo.java
C:\Users\Desarrollo_3\Desktop\respaldo\eclipse-workspace\ApiMonitoreo\src\com\icpayment\monitoreo\RespuestaJSON.java
